%YAML 1.1
%TAG !u! tag:unity3d.com,2011:
--- !u!221 &22100000
AnimatorOverrideController:
  m_ObjectHideFlags: 0
  m_CorrespondingSourceObject: {fileID: 0}
  m_PrefabInstance: {fileID: 0}
  m_PrefabAsset: {fileID: 0}
  m_Name: Solder other
  m_Controller: {fileID: 9100000, guid: c6c809dcf84b270458c22b5cb85bfe56, type: 2}
  m_Clips:
  - m_OriginalClip: {fileID: 7400000, guid: d406f8f3cbe268f4e9d0234d45cca60c, type: 3}
    m_OverrideClip: {fileID: 7400000, guid: d406f8f3cbe268f4e9d0234d45cca60c, type: 3}
  - m_OriginalClip: {fileID: 7400000, guid: d805ca1ced9a1054c9cb7e1dc431a6e3, type: 3}
    m_OverrideClip: {fileID: 7400000, guid: 9f0376548525d7f46a10087a2cb9ff17, type: 3}
  - m_OriginalClip: {fileID: 7400000, guid: 1d4365e1541bb6949a273318862b72d3, type: 3}
    m_OverrideClip: {fileID: 7400000, guid: 1d4365e1541bb6949a273318862b72d3, type: 3}
  - m_OriginalClip: {fileID: 7400000, guid: 107649059ea401b4e9c5c20f21e99a55, type: 3}
    m_OverrideClip: {fileID: 7400000, guid: 107649059ea401b4e9c5c20f21e99a55, type: 3}
  - m_OriginalClip: {fileID: 7400000, guid: 7e58f38d10fcc9a498d348e7339ce3ec, type: 3}
    m_OverrideClip: {fileID: 7400000, guid: 7e58f38d10fcc9a498d348e7339ce3ec, type: 3}
  - m_OriginalClip: {fileID: 7400000, guid: 669b29b2139d8de4ca5447dd50e201af, type: 3}
    m_OverrideClip: {fileID: 7400000, guid: 669b29b2139d8de4ca5447dd50e201af, type: 3}
  - m_OriginalClip: {fileID: 7400000, guid: e398e3aa9cdfcdc4ebd01a06e4c544ae, type: 3}
    m_OverrideClip: {fileID: 7400000, guid: 9f0376548525d7f46a10087a2cb9ff17, type: 3}
  - m_OriginalClip: {fileID: 7400000, guid: 34d1b8e01a0412f449dcefc77b05e27b, type: 3}
    m_OverrideClip: {fileID: 7400000, guid: 34d1b8e01a0412f449dcefc77b05e27b, type: 3}
  - m_OriginalClip: {fileID: 7400000, guid: e6a236f5b06f9cb44ae1ca8b50fcd8ca, type: 3}
    m_OverrideClip: {fileID: 7400000, guid: e6a236f5b06f9cb44ae1ca8b50fcd8ca, type: 3}
